{
  "src": "./src",
  "dest": "./public",

  "javascripts": {
    "src": "js",
    "dest": "js"
  },

  "stylesheets": {
    "src": "sass",
    "dest": "css"
  },

  "html": {
    "src": "html",
    "dest": "./"
  },

  "images": {
    "src": "img",
    "dest": "img"
  },
  
  "static": {
    "src": "static",
    "dest": ""
  }
}
